{
  "Actor": {
    "types": [
      "character",
      "npc",
      "mercenary",
      "ship"
    ],
    "templates": {
      "common": {
        "credits": {
          "min": 0,
          "value": 0
        },
        "universalSystemId": "",
        "description": {
          "value": ""
        },
        "notes": {
          "value": ""
        },
        "stats": {
          "strength": {
            "bonus": 0,
            "penalty": 0
          },
          "intellect": {
            "bonus": 0,
            "penalty": 0
          },
          "combat": {
            "min": 0,
            "max": 85,
            "value": 10,
            "bonus": 0,
            "penalty": 0
          },
          "speed": {
            "bonus": 0,
            "penalty": 0
          }
        },
        "saves": {
          "sanity": {
            "bonus": 0,
            "penalty": 0
          },
          "fear": {
            "bonus": 0,
            "penalty": 0
          },
          "body": {
            "bonus": 0,
            "penalty": 0
          },
          "armor": {
            "bonus": 0,
            "penalty": 0
          }
        }
      },
      "pc": {
        "job": "",
        "attributes": {
          "level": {
            "value": 0,
            "min": 0
          },
          "skillPoints": {
            "min": 0,
            "value": 0
          },
          "experience": {
            "min": 0,
            "value": 0
          },
          "armorBonus": {
            "value": 0
          }
        }
      }
    },
    "npc": {
      "templates": [
        "common"
      ],
      "stats": {
        "speed": {
          "min": 0,
          "value": 10
        },
        "instinct": {
          "min": 0,
          "max": 0,
          "value": 10
        }
      },
      "attributes": {
        "hits": {
          "min": 0,
          "value": 1,
          "max": 1
        },
        "healthPool": {
          "value": 1,
          "max": 1
        }
      }
    },
    "mercenary": {
      "templates": [
        "common",
        "pc"
      ],
      "attributes": {
        "hits": {
          "min": 0,
          "value": 1,
          "max": 1
        }
      },
      "stats": {
        "instinct": {
          "min": 0,
          "max": 85,
          "value": 10
        },
        "loyalty": {
          "min": 0,
          "max": 85,
          "value": 10
        }
      }
    },
    "character": {
      "templates": [
        "common",
        "pc"
      ],
      "class": "",
      "stats": {
        "strength": {
          "min": 0,
          "max": 85,
          "value": 10
        },
        "intellect": {
          "min": 0,
          "max": 85,
          "value": 10
        },
        "speed": {
          "min": 0,
          "max": 85,
          "value": 10
        }
      },
      "saves": {
        "sanity": {
          "min": 0,
          "max": 85,
          "value": 10
        },
        "fear": {
          "min": 0,
          "max": 85,
          "value": 10
        },
        "body": {
          "min": 0,
          "max": 85,
          "value": 10
        },
        "armor": {
          "min": 0,
          "max": 85,
          "value": 10
        }
      },
      "attributes": {
        "health": {
          "min": 0,
          "value": 10,
          "max": 10
        },
        "stress": {
          "min": 2,
          "value": 2
        },
        "resolve": {
          "min": 0,
          "value": 0
        },
        "credits": {
          "min": 0,
          "value": 0
        }
      }
    },
    "ship": {
      "templates": [],
      "shipType": "",
      "class": "",
      "officers": [],
      "attributes": {
        "hull": {
          "min": 0,
          "value": 0,
          "max": 0
        },
        "fuel": {
          "min": 0,
          "value": 0,
          "max": 0
        },
        "stock": {
          "min": 0,
          "value": 0,
          "max": 0
        },
        "cost": {
          "value": 0,
          "owed": 0
        },
        "totalCrew": {
          "value": 0,
          "max": 0
        }
      },
      "stats": {
        "armor": {
          "bonus": 0,
          "penalty": 0,
          "value": 0
        },
        "combat": {
          "bonus": 0,
          "penalty": 0,
          "value": 0
        },
        "intellect": {
          "bonus": 0,
          "penalty": 0,
          "value": 0
        },
        "speed": {
          "bonus": 0,
          "penalty": 0,
          "value": 0
        }
      }
    }
  },
  "Item": {
    "types": [
      "item",
      "weapon",
      "armor",
      "skill",
      "criticalEffect",
      "shipModule",
      "shipWeapon"
    ],
    "templates": {
      "common": {
        "quantity": {
          "value": 1
        },
        "description": {
          "value": ""
        },
        "notes": {
          "value": ""
        },
        "cost": {
          "value": 0
        }
      },
      "equipment": {
        "equipped": {
          "value": false
        }
      }
    },
    "weapon": {
      "templates": [
        "common",
        "equipment"
      ],
      "category": {
        "value": ""
      },
      "make": {
        "value": ""
      },
      "series": {
        "value": ""
      },
      "damage": {
        "value": ""
      },
      "criticalEffects": [],
      "caliber": {
        "value": ""
      },
      "ammunition": {
        "value": ""
      },
      "usesAmmo": {
        "value": true
      },
      "remainingAmmo": {
        "value": 0
      },
      "burst": {
        "value":  ""
      },
      "automatic": {
        "value": false
      },
      "loadedAmmo": {
        "value": 0
      },
      "shots": {
        "value": 0
      },
      "special": {
        "value": ""
      },
      "rateOfFire": {
        "value": ""
      },
      "range": {
        "short": {
          "value": ""
        },
        "medium": {
          "value": ""
        },
        "long": {
          "value": ""
        }
      }
    },
    "armor": {
      "templates": [
        "common",
        "equipment"
      ],
      "bonus": {
        "value": 0
      }
    },
    "skill": {
      "rank": {
        "value": "Trained"
      },
      "bonus": {
        "value": 10
      },
      "prerequisites": {
        "value": []
      }
    },
    "item": {
      "templates": [
        "common"
      ],
      "attributes": {}
    },
    "shipModule": {
      "templates": [
        "common"
      ],
      "points": {
        "value": 0
      },
      "hull": {
        "value": 0
      },
      "moduleType": {
        "value": ""
      },
      "required": {
        "value": false
      }
    },
    "shipWeapon": {
      "templates": [
        "common"
      ],
      "damage": {
        "value": ""
      },
      "shots": {
        "value": ""
      },
      "remainingAmmo": {
        "value": 0
      }
    }
  }
}